\relax 
\@writefile{toc}{\contentsline {chapter}{Preface}{i}}
\@writefile{lof}{\addvspace {10\p@ }}
\@writefile{lot}{\addvspace {10\p@ }}
\@writefile{toc}{\contentsline {section}{\numberline {0.1}Authors and Developers}{i}}
\@writefile{toc}{\contentsline {section}{\numberline {0.2}Other contributer to develop this textbook}{ii}}
\@writefile{toc}{\contentsline {section}{\numberline {0.3}Translators}{iii}}
\@writefile{toc}{\contentsline {section}{\numberline {0.4}Copyright}{iii}}
\@writefile{toc}{\contentsline {section}{\numberline {0.5} License for use}{iii}}
\@writefile{toc}{\contentsline {section}{\numberline {0.6}Our Definition of commercial use}{iii}}
\@writefile{toc}{\contentsline {section}{\numberline {0.7}The mission of this textboook}{iv}}
\@writefile{toc}{\contentsline {section}{\numberline {0.8}Assumed practical environment}{iv}}
\@writefile{toc}{\contentsline {section}{\numberline {0.9}Other references}{v}}
\@setckpt{preface}{
\setcounter{page}{6}
\setcounter{equation}{0}
\setcounter{enumi}{0}
\setcounter{enumii}{0}
\setcounter{enumiii}{0}
\setcounter{enumiv}{0}
\setcounter{footnote}{0}
\setcounter{mpfootnote}{0}
\setcounter{part}{0}
\setcounter{chapter}{0}
\setcounter{section}{9}
\setcounter{subsection}{0}
\setcounter{subsubsection}{0}
\setcounter{paragraph}{0}
\setcounter{subparagraph}{0}
\setcounter{figure}{0}
\setcounter{table}{0}
}
